…
Observations are the level of items in orders by user. There are user /
order variables – user ID, order ID, order day, and order hour. There
are also item variables – name, aisle, department, and some numeric
codes.

How many aisles, and which are most items from?

``` r
instacart %>% 
    count(aisle) %>% 
    arrange(desc(n))
```

    ## # A tibble: 134 x 2
    ##    aisle                              n
    ##    <chr>                          <int>
    ##  1 fresh vegetables              150609
    ##  2 fresh fruits                  150473
    ##  3 packaged vegetables fruits     78493
    ##  4 yogurt                         55240
    ##  5 packaged cheese                41699
    ##  6 water seltzer sparkling water  36617
    ##  7 milk                           32644
    ##  8 chips pretzels                 31269
    ##  9 soy lactosefree                26240
    ## 10 bread                          23635
    ## # … with 124 more rows
…
``` r
# preview the df
accel_df
```

    ## # A tibble: 50,400 x 6
    ##     week day_id day    minute activity_count weekend
    ##    <int>  <int> <ord>   <int>          <dbl> <lgl>  
    ##  1     1      2 Monday      1              1 FALSE  
    ##  2     1      2 Monday      2              1 FALSE  
    ##  3     1      2 Monday      3              1 FALSE  
    ##  4     1      2 Monday      4              1 FALSE  
    ##  5     1      2 Monday      5              1 FALSE  
    ##  6     1      2 Monday      6              1 FALSE  
    ##  7     1      2 Monday      7              1 FALSE  
    ##  8     1      2 Monday      8              1 FALSE  
    ##  9     1      2 Monday      9              1 FALSE  
    ## 10     1      2 Monday     10              1 FALSE  
    ## # … with 50,390 more rows
…
